simulation/modelsim/debug.vcd
$date
	Thu Nov 13 21:10:27 2025
$end
$version
	ModelSim Version 2020.1
$end
$timescale
	1ps
$end

$scope module tb_debug_modosecuencial $end
$var reg 1 ! clk $end
$var reg 1 " rst $end
$var reg 1 # valid_in $end
$var reg 8 $ I00 [7:0] $end
$var reg 8 % I10 [7:0] $end
$var reg 8 & I01 [7:0] $end
$var reg 8 ' I11 [7:0] $end
$var reg 8 ( alpha [7:0] $end
$var reg 8 ) beta [7:0] $end
$var reg 1 * valid_out $end
$var reg 8 + pixel_out [7:0] $end
$var reg 16 , I00_q_tb [15:0] $end
$var reg 16 - I10_q_tb [15:0] $end
$var reg 16 . alpha_q_tb [15:0] $end
$var reg 32 / mult_ax_tb [31:0] $end
$var reg 16 0 term_ax_tb [15:0] $end
$var reg 16 1 a_q_tb [15:0] $end
$var real 64 2 a_q_real_tb $end

$scope module dut $end
$var wire 1 3 clk $end
$var wire 1 4 rst $end
$var wire 1 5 valid_in $end
$var wire 1 6 I00 [7] $end
$var wire 1 7 I00 [6] $end
$var wire 1 8 I00 [5] $end
$var wire 1 9 I00 [4] $end
$var wire 1 : I00 [3] $end
$var wire 1 ; I00 [2] $end
$var wire 1 < I00 [1] $end
$var wire 1 = I00 [0] $end
$var wire 1 > I10 [7] $end
$var wire 1 ? I10 [6] $end
$var wire 1 @ I10 [5] $end
$var wire 1 A I10 [4] $end
$var wire 1 B I10 [3] $end
$var wire 1 C I10 [2] $end
$var wire 1 D I10 [1] $end
$var wire 1 E I10 [0] $end
$var wire 1 F I01 [7] $end
$var wire 1 G I01 [6] $end
$var wire 1 H I01 [5] $end
$var wire 1 I I01 [4] $end
$var wire 1 J I01 [3] $end
$var wire 1 K I01 [2] $end
$var wire 1 L I01 [1] $end
$var wire 1 M I01 [0] $end
$var wire 1 N I11 [7] $end
$var wire 1 O I11 [6] $end
$var wire 1 P I11 [5] $end
$var wire 1 Q I11 [4] $end
$var wire 1 R I11 [3] $end
$var wire 1 S I11 [2] $end
$var wire 1 T I11 [1] $end
$var wire 1 U I11 [0] $end
$var wire 1 V alpha [7] $end
$var wire 1 W alpha [6] $end
$var wire 1 X alpha [5] $end
$var wire 1 Y alpha [4] $end
$var wire 1 Z alpha [3] $end
$var wire 1 [ alpha [2] $end
$var wire 1 \ alpha [1] $end
$var wire 1 ] alpha [0] $end
$var wire 1 ^ beta [7] $end
$var wire 1 _ beta [6] $end
$var wire 1 ` beta [5] $end
$var wire 1 a beta [4] $end
$var wire 1 b beta [3] $end
$var wire 1 c beta [2] $end
$var wire 1 d beta [1] $end
$var wire 1 e beta [0] $end
$var reg 1 f valid_out $end
$var reg 8 g pixel_out [7:0] $end
$var reg 16 h I00_q [15:0] $end
$var reg 16 i I10_q [15:0] $end
$var reg 16 j I01_q [15:0] $end
$var reg 16 k I11_q [15:0] $end
$var reg 16 l alpha_q [15:0] $end
$var reg 16 m beta_q [15:0] $end
$var reg 17 n diff_x0 [16:0] $end
$var reg 17 o diff_x1 [16:0] $end
$var reg 32 p mult_ax [31:0] $end
$var reg 32 q mult_bx [31:0] $end
$var reg 16 r term_ax [15:0] $end
$var reg 16 s term_bx [15:0] $end
$var reg 16 t a_q [15:0] $end
$var reg 16 u b_q [15:0] $end
$var reg 17 v diff_y [16:0] $end
$var reg 32 w mult_by [31:0] $end
$var reg 16 x term_by [15:0] $end
$var reg 16 y v_q [15:0] $end
$var reg 17 z v_rounded [16:0] $end
$var reg 9 { pixel_int [8:0] $end
$var reg 8 | pixel_clamped [7:0] $end
$upscope $end
$upscope $end
$enddefinitions $end
#0
$dumpvars
0!
1"
0#
b0 $
b0 %
b0 &
b0 '
b0 (
b0 )
0*
b0 +
bx ,
bx -
bx .
bx /
bx 0
bx 1
0f
b0 g
b0 h
b0 i
b0 j
b0 k
b0 l
b0 m
b0 n
b0 o
b0 p
b0 q
b0 r
b0 s
b0 t
b0 u
b0 v
b0 w
b0 x
b0 y
b10000000 z
b0 {
b0 |
r0 2
03
14
05
0=
0<
0;
0:
09
08
07
06
0E
0D
0C
0B
0A
0@
0?
0>
0M
0L
0K
0J
0I
0H
0G
0F
0U
0T
0S
0R
0Q
0P
0O
0N
0]
0\
0[
0Z
0Y
0X
0W
0V
0e
0d
0c
0b
0a
0`
0_
0^
$end
#5000
1!
13
#10000
0!
03
#15000
1!
13
#20000
0!
03
#25000
1!
13
0"
04
#30000
0!
03
#35000
1!
13
#40000
0!
03
#45000
1!
13
1#
b11111111 %
b11111111 '
b10000000 (
b10000000 )
15
1^
1V
1U
1T
1S
1R
1Q
1P
1O
1N
1E
1D
1C
1B
1A
1@
1?
1>
b1111111100000000 i
b1111111100000000 k
b10000000 l
b10000000 m
b1111111100000000 n
b1111111100000000 o
b11111111000000000000000 p
b111111110000000 r
b111111110000000 t
b11111111000000000000000 q
b111111110000000 s
b111111110000000 u
b111111110000000 y
b1000000000000000 z
b10000000 {
b10000000 |
#50000
0!
03
#55000
1!
13
0#
05
1f
b10000000 g
b10000000 +
1*
#60000
0!
03
#65000
1!
13
0f
0*
#70000
0!
03
#75000
1!
13
b0 ,
b1111111100000000 -
b10000000 .
b11111111111111111000000000000000 /
b1111111110000000 0
b1111111110000000 1
r-0.5 2
#80000
0!
03
#85000
1!
13
#90000
0!
03
#95000
1!
13
#100000
0!
03
#105000
1!
13
#110000
0!
03
#115000
1!
13
#120000
0!
03
#125000
1!
13
#130000
0!
03
#135000
1!
13
1#
b11111111 $
b11111111 &
15
1M
1L
1K
1J
1I
1H
1G
1F
1=
1<
1;
1:
19
18
17
16
b1111111100000000 h
b1111111100000000 j
b0 n
b0 o
b0 p
b0 r
b1111111100000000 t
b0 q
b0 s
b1111111100000000 u
b1111111100000000 y
b1111111110000000 z
b11111111 {
b11111111 |
#140000
0!
03
#145000
1!
13
0#
05
1f
b11111111 g
b11111111 +
1*
#150000
0!
03
#155000
1!
13
0f
0*
