simulation/modelsim/tb_bilinear_scalar_q8_8.vcd
$date
	Thu Nov 13 21:45:13 2025
$end
$version
	ModelSim Version 2020.1
$end
$timescale
	1ps
$end

$scope module tb_bilinear_scalar_q8_8 $end
$var reg 1 ! clk $end
$var reg 1 " rst $end
$var reg 1 # valid_in $end
$var reg 8 $ I00 [7:0] $end
$var reg 8 % I10 [7:0] $end
$var reg 8 & I01 [7:0] $end
$var reg 8 ' I11 [7:0] $end
$var reg 8 ( alpha [7:0] $end
$var reg 8 ) beta [7:0] $end
$var reg 1 * valid_out $end
$var reg 8 + pixel_out [7:0] $end
$var integer 32 , test_num $end
$var integer 32 - passed $end
$var integer 32 . failed $end

$scope task test_case $end
$upscope $end

$scope module dut $end
$var wire 1 / clk $end
$var wire 1 0 rst $end
$var wire 1 1 valid_in $end
$var wire 1 2 I00 [7] $end
$var wire 1 3 I00 [6] $end
$var wire 1 4 I00 [5] $end
$var wire 1 5 I00 [4] $end
$var wire 1 6 I00 [3] $end
$var wire 1 7 I00 [2] $end
$var wire 1 8 I00 [1] $end
$var wire 1 9 I00 [0] $end
$var wire 1 : I10 [7] $end
$var wire 1 ; I10 [6] $end
$var wire 1 < I10 [5] $end
$var wire 1 = I10 [4] $end
$var wire 1 > I10 [3] $end
$var wire 1 ? I10 [2] $end
$var wire 1 @ I10 [1] $end
$var wire 1 A I10 [0] $end
$var wire 1 B I01 [7] $end
$var wire 1 C I01 [6] $end
$var wire 1 D I01 [5] $end
$var wire 1 E I01 [4] $end
$var wire 1 F I01 [3] $end
$var wire 1 G I01 [2] $end
$var wire 1 H I01 [1] $end
$var wire 1 I I01 [0] $end
$var wire 1 J I11 [7] $end
$var wire 1 K I11 [6] $end
$var wire 1 L I11 [5] $end
$var wire 1 M I11 [4] $end
$var wire 1 N I11 [3] $end
$var wire 1 O I11 [2] $end
$var wire 1 P I11 [1] $end
$var wire 1 Q I11 [0] $end
$var wire 1 R alpha [7] $end
$var wire 1 S alpha [6] $end
$var wire 1 T alpha [5] $end
$var wire 1 U alpha [4] $end
$var wire 1 V alpha [3] $end
$var wire 1 W alpha [2] $end
$var wire 1 X alpha [1] $end
$var wire 1 Y alpha [0] $end
$var wire 1 Z beta [7] $end
$var wire 1 [ beta [6] $end
$var wire 1 \ beta [5] $end
$var wire 1 ] beta [4] $end
$var wire 1 ^ beta [3] $end
$var wire 1 _ beta [2] $end
$var wire 1 ` beta [1] $end
$var wire 1 a beta [0] $end
$var reg 1 b valid_out $end
$var reg 8 c pixel_out [7:0] $end
$var reg 16 d I00_q [15:0] $end
$var reg 16 e I10_q [15:0] $end
$var reg 16 f I01_q [15:0] $end
$var reg 16 g I11_q [15:0] $end
$var reg 16 h alpha_q [15:0] $end
$var reg 16 i beta_q [15:0] $end
$var reg 17 j diff_x0 [16:0] $end
$var reg 17 k diff_x1 [16:0] $end
$var reg 32 l mult_ax [31:0] $end
$var reg 32 m mult_bx [31:0] $end
$var reg 16 n term_ax [15:0] $end
$var reg 16 o term_bx [15:0] $end
$var reg 16 p a_q [15:0] $end
$var reg 16 q b_q [15:0] $end
$var reg 17 r diff_y [16:0] $end
$var reg 32 s mult_by [31:0] $end
$var reg 16 t term_by [15:0] $end
$var reg 16 u v_q [15:0] $end
$var reg 17 v v_rounded [16:0] $end
$var reg 9 w pixel_int [8:0] $end
$var reg 8 x pixel_clamped [7:0] $end
$upscope $end
$upscope $end
$enddefinitions $end
#0
$dumpvars
0!
1"
0#
b0 $
b0 %
b0 &
b0 '
b0 (
b0 )
0*
b0 +
0b
b0 c
b0 d
b0 e
b0 f
b0 g
b0 h
b0 i
b0 j
b0 k
b0 l
b0 m
b0 n
b0 o
b0 p
b0 q
b0 r
b0 s
b0 t
b0 u
b10000000 v
b0 w
b0 x
b0 ,
b0 -
b0 .
0/
10
01
09
08
07
06
05
04
03
02
0A
0@
0?
0>
0=
0<
0;
0:
0I
0H
0G
0F
0E
0D
0C
0B
0Q
0P
0O
0N
0M
0L
0K
0J
0Y
0X
0W
0V
0U
0T
0S
0R
0a
0`
0_
0^
0]
0\
0[
0Z
$end
#5000
1!
1/
#10000
0!
0/
#15000
1!
1/
#20000
0!
0/
#25000
1!
1/
0"
00
#30000
0!
0/
#35000
1!
1/
b1 ,
#40000
0!
0/
#45000
1!
1/
1#
b1100100 $
b1100100 %
b1100100 &
b1100100 '
b10000000 (
b10000000 )
11
1Z
1R
1O
1L
1K
1G
1D
1C
1?
1<
1;
17
14
13
b110010000000000 d
b110010000000000 e
b110010000000000 f
b110010000000000 g
b10000000 h
b10000000 i
b110010000000000 p
b110010000000000 q
b110010000000000 u
b110010010000000 v
b1100100 w
b1100100 x
#50000
0!
0/
#55000
1!
1/
0#
01
1b
b1100100 c
b1100100 +
1*
#60000
0!
0/
#65000
1!
1/
b1 -
b10 ,
0b
0*
#70000
0!
0/
#75000
1!
1/
1#
b0 $
b11111111 %
b0 &
b11111111 '
11
1Q
1P
1N
1M
1J
0G
0D
0C
1A
1@
1>
1=
1:
07
04
03
b0 d
b1111111100000000 e
b0 f
b1111111100000000 g
b1111111100000000 j
b1111111100000000 k
b11111111000000000000000 l
b111111110000000 n
b111111110000000 p
b11111111000000000000000 m
b111111110000000 o
b111111110000000 q
b111111110000000 u
b1000000000000000 v
b10000000 w
b10000000 x
#80000
0!
0/
#85000
1!
1/
0#
01
1b
b10000000 c
b10000000 +
1*
#90000
0!
0/
#95000
1!
1/
b10 -
b11 ,
0b
0*
#100000
0!
0/
#105000
1!
1/
1#
b110010 $
b1100100 %
b10010110 &
b11001000 '
b0 (
b0 )
11
0Z
0R
0Q
0P
0O
0M
0L
1H
1G
1E
1B
0A
0@
0>
0=
0:
18
15
14
b11001000000000 d
b110010000000000 e
b1001011000000000 f
b1100100000000000 g
b0 h
b0 i
b11001000000000 j
b11001000000000 k
b0 l
b0 n
b11001000000000 p
b0 m
b0 o
b1001011000000000 q
b110010000000000 r
b11001000000000 u
b11001010000000 v
b110010 w
b110010 x
#110000
0!
0/
#115000
1!
1/
0#
01
1b
b110010 c
b110010 +
1*
#120000
0!
0/
#125000
1!
1/
b11 -
b100 ,
0b
0*
#130000
0!
0/
#135000
1!
1/
1#
b11111111 (
11
1Y
1X
1W
1V
1U
1T
1S
1R
b11111111 h
b1100011100111000000000 l
b11000111001110 n
b110001111001110 p
b1100011100111000000000 m
b11000111001110 o
b1100011111001110 q
b110001111001110 u
b110010001001110 v
b1100100 w
b1100100 x
#140000
0!
0/
#145000
1!
1/
0#
01
1b
b1100100 c
b1100100 +
1*
#150000
0!
0/
#155000
1!
1/
b100 -
b101 ,
0b
0*
#160000
0!
0/
#165000
1!
1/
1#
b0 (
b11111111 )
11
1a
1`
1_
1^
1]
1\
1[
1Z
0Y
0X
0W
0V
0U
0T
0S
0R
b0 h
b11111111 i
b11000111001110000000000 s
b110001110011100 t
b1100011101101010 u
b0 l
b0 n
b11001000000000 p
b0 m
b0 o
b1001011000000000 q
b1001010110011100 u
b1001011000011100 v
b10010110 w
b10010110 x
#170000
0!
0/
#175000
1!
1/
0#
01
1b
b10010110 c
b10010110 +
1*
#180000
0!
0/
#185000
1!
1/
b101 -
b110 ,
0b
0*
#190000
0!
0/
#195000
1!
1/
1#
b11111111 (
11
1Y
1X
1W
1V
1U
1T
1S
1R
b11111111 h
b1100011100111000000000 l
b11000111001110 n
b110001111001110 p
b1100011100111000000000 m
b11000111001110 o
b1100011111001110 q
b1100011101101010 u
b1100011111101010 v
b11000111 w
b11000111 x
#200000
0!
0/
#205000
1!
1/
0#
01
1b
b11000111 c
b11000111 +
1*
#210000
0!
0/
#215000
1!
1/
b110 -
b111 ,
0b
0*
#220000
0!
0/
#225000
1!
1/
1#
b0 $
b0 %
b0 &
b0 '
b10000000 (
b10000000 )
11
0a
0`
0_
0^
0]
0\
0[
0Y
0X
0W
0V
0U
0T
0S
0N
0K
0J
0H
0G
0E
0B
0?
0<
0;
08
05
04
b0 d
b0 e
b0 f
b0 g
b10000000 h
b10000000 i
b1100100000000000000000 s
b11001000000000 t
b1001010111001110 u
b0 j
b0 k
b0 l
b0 n
b0 p
b0 m
b0 o
b0 q
b0 r
b0 s
b0 t
b0 u
b10000000 v
b0 w
b0 x
#230000
0!
0/
#235000
1!
1/
0#
01
1b
b0 c
b0 +
1*
#240000
0!
0/
#245000
1!
1/
b111 -
b1000 ,
0b
0*
#250000
0!
0/
#255000
1!
1/
1#
b11111111 $
b11111111 %
b11111111 &
b11111111 '
11
1Q
1P
1O
1N
1M
1L
1K
1J
1I
1H
1G
1F
1E
1D
1C
1B
1A
1@
1?
1>
1=
1<
1;
1:
19
18
17
16
15
14
13
12
b1111111100000000 d
b1111111100000000 e
b1111111100000000 f
b1111111100000000 g
b1111111100000000 p
b1111111100000000 q
b1111111100000000 u
b1111111110000000 v
b11111111 w
b11111111 x
#260000
0!
0/
#265000
1!
1/
0#
01
1b
b11111111 c
b11111111 +
1*
#270000
0!
0/
#275000
1!
1/
b1000 -
b1001 ,
0b
0*
#280000
0!
0/
#285000
1!
1/
1#
b0 $
b0 '
11
0Q
0P
0O
0N
0M
0L
0K
0J
09
08
07
06
05
04
03
02
b0 d
b0 g
b1111111100000000 j
b10000000100000000 k
b11111111000000000000000 l
b111111110000000 n
b111111110000000 p
b11111111011111111000000000000000 m
b111111110000000 o
b111111110000000 q
b111111110000000 u
b1000000000000000 v
b10000000 w
b10000000 x
#290000
0!
0/
#295000
1!
1/
0#
01
1b
b10000000 c
b10000000 +
1*
#300000
0!
0/
#305000
1!
1/
b1001 -
b1010 ,
0b
0*
#310000
0!
0/
#315000
1!
1/
1#
b1100100 %
b1100100 &
b11001000 '
b1000000 (
b1000000 )
11
1[
0Z
1S
0R
1N
1K
1J
0I
0H
0F
0E
0B
0A
0@
0>
0=
0:
b110010000000000 e
b110010000000000 f
b1100100000000000 g
b1000000 h
b1000000 i
b110010000000000 j
b110010000000000 k
b110010000000000000000 l
b1100100000000 n
b1100100000000 p
b110010000000000000000 m
b1100100000000 o
b111110100000000 q
b110010000000000 r
b110010000000000000000 s
b1100100000000 t
b11001000000000 u
b11001010000000 v
b110010 w
b110010 x
#320000
0!
0/
#325000
1!
1/
0#
01
1b
b110010 c
b110010 +
1*
#330000
0!
0/
#335000
1!
1/
b1010 -
b1011 ,
0b
0*
#340000
0!
0/
#345000
1!
1/
1#
b11000000 (
b11000000 )
11
1Z
1R
b11000000 h
b11000000 i
b10010110000000000000000 s
b100101100000000 t
b110010000000000 u
b10010110000000000000000 l
b100101100000000 n
b100101100000000 p
b10010110000000000000000 m
b100101100000000 o
b1010111100000000 q
b1001011000000000 u
b1001011010000000 v
b10010110 w
b10010110 x
#350000
0!
0/
#355000
1!
1/
0#
01
1b
b10010110 c
b10010110 +
1*
#360000
0!
0/
#365000
1!
1/
b1011 -
b1100 ,
0b
0*
#370000
0!
0/
#375000
1!
1/
1#
b1111000 $
b1111101 %
b1110110 &
b1111011 '
b1001101 (
b1100110 )
11
1`
1_
1\
0Z
1Y
1W
1V
0R
1Q
1P
1M
1L
0J
1H
1E
1A
1>
1=
16
15
14
13
b111100000000000 d
b111110100000000 e
b111011000000000 f
b111101100000000 g
b1001101 h
b1100110 i
b1001111101100000000000 s
b10011111011000 t
b111001011011000 u
b10100000000 j
b10100000000 k
b11000000100000000 l
b110000001 n
b111100110000001 p
b11000000100000000 m
b110000001 o
b111011110000001 q
b11111111000000000 r
b11111111001101001100110000000000 s
b11010011001100 t
b100010010110101 u
b100010100110101 v
b1000101 w
b1000101 x
#380000
0!
0/
#385000
1!
1/
0#
01
1b
b1000101 c
b1000101 +
1*
#390000
0!
0/
#395000
1!
1/
b1 .
b1101 ,
0b
0*
#400000
0!
0/
#405000
1!
1/
1#
b101101 $
b1000011 %
b1011001 &
b1101111 '
b10001100 (
b10110100 )
11
0`
1]
0[
1Z
0Y
0S
1R
1O
0M
1I
0H
0G
1F
0D
1@
0?
0>
0=
0<
19
17
05
03
b10110100000000 d
b100001100000000 e
b101100100000000 f
b110111100000000 g
b10001100 h
b10110100 i
b11111110100110010110100000000000 s
b1001100101101000 t
b1110000000011001 u
b1011000000000 j
b1011000000000 k
b11000000100000000000 l
b110000001000 n
b11100100001000 p
b11000000100000000000 m
b110000001000 o
b110010100001000 q
b10110000000000 r
b111101111000000000000 s
b1111011110000 t
b101011111111000 u
b101100001111000 v
b1011000 w
b1011000 x
#410000
0!
0/
#415000
1!
1/
0#
01
1b
b1011000 c
b1011000 +
1*
#420000
0!
0/
#425000
1!
1/
b1100 -
b1110 ,
0b
0*
#430000
0!
0/
#435000
1!
1/
1#
b1100100 $
b11001000 %
b10010110 &
b11111010 '
b0 (
b10000000 )
11
0_
0]
0\
0W
0V
0R
0Q
0O
1M
1J
0I
1H
1G
0F
0C
1B
0A
0@
1>
1:
09
06
13
b110010000000000 d
b1100100000000000 e
b1001011000000000 f
b1111101000000000 g
b0 h
b10000000 i
b101100000000000000000 s
b1011000000000 t
b100111100001000 u
b110010000000000 j
b110010000000000 k
b0 l
b0 n
b110010000000000 p
b0 m
b0 o
b1001011000000000 q
b11001000000000 r
b110010000000000000000 s
b1100100000000 t
b111110100000000 u
b111110110000000 v
b1111101 w
b1111101 x
#440000
0!
0/
#445000
1!
1/
0#
01
1b
b1111101 c
b1111101 +
1*
#450000
0!
0/
#455000
1!
1/
b1101 -
b1111 ,
0b
0*
#460000
0!
0/
#465000
1!
1/
1#
b11111111 (
11
1Y
1X
1W
1V
1U
1T
1S
1R
b11111111 h
b11000111001110000000000 l
b110001110011100 n
b1100011110011100 p
b11000111001110000000000 m
b110001110011100 o
b1111100110011100 q
b1110000010011100 u
b1110000100011100 v
b11100001 w
b11100001 x
#470000
0!
0/
#475000
1!
1/
0#
01
1b
b11100001 c
b11100001 +
1*
#480000
0!
0/
#485000
1!
1/
b1110 -
b10000 ,
0b
0*
#490000
0!
0/
#495000
1!
1/
1#
b0 $
b11111111 %
b0 &
b11111111 '
b100000 (
b100000 )
11
1\
0Z
0Y
0X
0W
0V
0U
0S
0R
1Q
1O
0H
0G
0E
0B
1A
1@
1?
1=
1<
07
04
03
b0 d
b1111111100000000 e
b0 f
b1111111100000000 g
b100000 h
b100000 i
b1100100000000000000 s
b11001000000 t
b1100110111011100 u
b1111111100000000 j
b1111111100000000 k
b111111110000000000000 l
b1111111100000 n
b1111111100000 p
b111111110000000000000 m
b1111111100000 o
b1111111100000 q
b0 r
b0 s
b0 t
b1111111100000 u
b10000001100000 v
b100000 w
b100000 x
#500000
0!
0/
#505000
1!
1/
0#
01
1b
b100000 c
b100000 +
1*
#510000
0!
0/
#515000
1!
1/
b1111 -
0b
0*
