simulation/modelsim/tb_bilinear_scalar.vcd
$date
	Thu Nov 13 21:23:16 2025
$end
$version
	ModelSim Version 2020.1
$end
$timescale
	1ps
$end

$scope module tb_bilinear_scalar_q8_8 $end
$var reg 1 ! clk $end
$var reg 1 " rst $end
$var reg 1 # valid_in $end
$var reg 8 $ I00 [7:0] $end
$var reg 8 % I10 [7:0] $end
$var reg 8 & I01 [7:0] $end
$var reg 8 ' I11 [7:0] $end
$var reg 8 ( alpha [7:0] $end
$var reg 8 ) beta [7:0] $end
$var reg 1 * valid_out $end
$var reg 8 + pixel_out [7:0] $end
$var integer 32 , test_num $end
$var integer 32 - passed_tests $end
$var integer 32 . failed_tests $end
$var reg 8 / expected_result [7:0] $end

$scope task apply_test $end
$upscope $end

$scope function bilinear_reference $end
$upscope $end

$scope module dut $end
$var wire 1 0 clk $end
$var wire 1 1 rst $end
$var wire 1 2 valid_in $end
$var wire 1 3 I00 [7] $end
$var wire 1 4 I00 [6] $end
$var wire 1 5 I00 [5] $end
$var wire 1 6 I00 [4] $end
$var wire 1 7 I00 [3] $end
$var wire 1 8 I00 [2] $end
$var wire 1 9 I00 [1] $end
$var wire 1 : I00 [0] $end
$var wire 1 ; I10 [7] $end
$var wire 1 < I10 [6] $end
$var wire 1 = I10 [5] $end
$var wire 1 > I10 [4] $end
$var wire 1 ? I10 [3] $end
$var wire 1 @ I10 [2] $end
$var wire 1 A I10 [1] $end
$var wire 1 B I10 [0] $end
$var wire 1 C I01 [7] $end
$var wire 1 D I01 [6] $end
$var wire 1 E I01 [5] $end
$var wire 1 F I01 [4] $end
$var wire 1 G I01 [3] $end
$var wire 1 H I01 [2] $end
$var wire 1 I I01 [1] $end
$var wire 1 J I01 [0] $end
$var wire 1 K I11 [7] $end
$var wire 1 L I11 [6] $end
$var wire 1 M I11 [5] $end
$var wire 1 N I11 [4] $end
$var wire 1 O I11 [3] $end
$var wire 1 P I11 [2] $end
$var wire 1 Q I11 [1] $end
$var wire 1 R I11 [0] $end
$var wire 1 S alpha [7] $end
$var wire 1 T alpha [6] $end
$var wire 1 U alpha [5] $end
$var wire 1 V alpha [4] $end
$var wire 1 W alpha [3] $end
$var wire 1 X alpha [2] $end
$var wire 1 Y alpha [1] $end
$var wire 1 Z alpha [0] $end
$var wire 1 [ beta [7] $end
$var wire 1 \ beta [6] $end
$var wire 1 ] beta [5] $end
$var wire 1 ^ beta [4] $end
$var wire 1 _ beta [3] $end
$var wire 1 ` beta [2] $end
$var wire 1 a beta [1] $end
$var wire 1 b beta [0] $end
$var reg 1 c valid_out $end
$var reg 8 d pixel_out [7:0] $end
$var reg 16 e I00_q [15:0] $end
$var reg 16 f I10_q [15:0] $end
$var reg 16 g I01_q [15:0] $end
$var reg 16 h I11_q [15:0] $end
$var reg 16 i alpha_q [15:0] $end
$var reg 16 j beta_q [15:0] $end
$var reg 17 k diff_x0 [16:0] $end
$var reg 17 l diff_x1 [16:0] $end
$var reg 32 m mult_ax [31:0] $end
$var reg 32 n mult_bx [31:0] $end
$var reg 16 o term_ax [15:0] $end
$var reg 16 p term_bx [15:0] $end
$var reg 16 q a_q [15:0] $end
$var reg 16 r b_q [15:0] $end
$var reg 17 s diff_y [16:0] $end
$var reg 32 t mult_by [31:0] $end
$var reg 16 u term_by [15:0] $end
$var reg 16 v v_q [15:0] $end
$var reg 17 w v_rounded [16:0] $end
$var reg 9 x pixel_int [8:0] $end
$var reg 8 y pixel_clamped [7:0] $end
$upscope $end
$upscope $end
$enddefinitions $end
#0
$dumpvars
0!
1"
0#
b0 $
b0 %
b0 &
b0 '
b0 (
b0 )
0*
b0 +
0c
b0 d
b0 e
b0 f
b0 g
b0 h
b0 i
b0 j
b0 k
b0 l
b0 m
b0 n
b0 o
b0 p
b0 q
b0 r
b0 s
b0 t
b0 u
b0 v
b10000000 w
b0 x
b0 y
bx /
b0 ,
b0 -
b0 .
00
11
02
0:
09
08
07
06
05
04
03
0B
0A
0@
0?
0>
0=
0<
0;
0J
0I
0H
0G
0F
0E
0D
0C
0R
0Q
0P
0O
0N
0M
0L
0K
0Z
0Y
0X
0W
0V
0U
0T
0S
0b
0a
0`
0_
0^
0]
0\
0[
$end
#5000
1!
10
#10000
0!
00
#15000
1!
10
#20000
0!
00
#25000
1!
10
0"
01
#30000
0!
00
#35000
1!
10
b1 ,
#40000
0!
00
#45000
1!
10
1#
b1100100 $
b1100100 %
b1100100 &
b1100100 '
b10000000 (
b10000000 )
b1100100 /
12
1[
1S
1P
1M
1L
1H
1E
1D
1@
1=
1<
18
15
14
b110010000000000 e
b110010000000000 f
b110010000000000 g
b110010000000000 h
b10000000 i
b10000000 j
b110010000000000 q
b110010000000000 r
b110010000000000 v
b110010010000000 w
b1100100 x
b1100100 y
#50000
0!
00
#55000
1!
10
0#
02
1c
b1100100 d
b1100100 +
1*
#60000
0!
00
#65000
1!
10
b1 -
b10 ,
0c
0*
#70000
0!
00
#75000
1!
10
1#
b0 $
b11111111 %
b0 &
b11111111 '
b10000000 /
12
1R
1Q
1O
1N
1K
0H
0E
0D
1B
1A
1?
1>
1;
08
05
04
b0 e
b1111111100000000 f
b0 g
b1111111100000000 h
b1111111100000000 k
b1111111100000000 l
b11111111000000000000000 m
b111111110000000 o
b111111110000000 q
b11111111000000000000000 n
b111111110000000 p
b111111110000000 r
b111111110000000 v
b1000000000000000 w
b10000000 x
b10000000 y
#80000
0!
00
#85000
1!
10
0#
02
1c
b10000000 d
b10000000 +
1*
#90000
0!
00
#95000
1!
10
b10 -
b11 ,
0c
0*
#100000
0!
00
#105000
1!
10
1#
b110010 $
b1100100 %
b10010110 &
b11001000 '
b0 (
b0 )
b110010 /
12
0[
0S
0R
0Q
0P
0N
0M
1I
1H
1F
1C
0B
0A
0?
0>
0;
19
16
15
b11001000000000 e
b110010000000000 f
b1001011000000000 g
b1100100000000000 h
b0 i
b0 j
b11001000000000 k
b11001000000000 l
b0 m
b0 o
b11001000000000 q
b0 n
b0 p
b1001011000000000 r
b110010000000000 s
b11001000000000 v
b11001010000000 w
b110010 x
b110010 y
#110000
0!
00
#115000
1!
10
0#
02
1c
b110010 d
b110010 +
1*
#120000
0!
00
#125000
1!
10
b11 -
b100 ,
0c
0*
#130000
0!
00
#135000
1!
10
1#
b11111111 (
b1100100 /
12
1Z
1Y
1X
1W
1V
1U
1T
1S
b11111111 i
b1100011100111000000000 m
b11000111001110 o
b110001111001110 q
b1100011100111000000000 n
b11000111001110 p
b1100011111001110 r
b110001111001110 v
b110010001001110 w
b1100100 x
b1100100 y
#140000
0!
00
#145000
1!
10
0#
02
1c
b1100100 d
b1100100 +
1*
#150000
0!
00
#155000
1!
10
b100 -
b101 ,
0c
0*
#160000
0!
00
#165000
1!
10
1#
b0 (
b11111111 )
b10010110 /
12
1b
1a
1`
1_
1^
1]
1\
1[
0Z
0Y
0X
0W
0V
0U
0T
0S
b0 i
b11111111 j
b11000111001110000000000 t
b110001110011100 u
b1100011101101010 v
b0 m
b0 o
b11001000000000 q
b0 n
b0 p
b1001011000000000 r
b1001010110011100 v
b1001011000011100 w
b10010110 x
b10010110 y
#170000
0!
00
#175000
1!
10
0#
02
1c
b10010110 d
b10010110 +
1*
#180000
0!
00
#185000
1!
10
b101 -
b110 ,
0c
0*
#190000
0!
00
#195000
1!
10
1#
b11111111 (
b11001000 /
12
1Z
1Y
1X
1W
1V
1U
1T
1S
b11111111 i
b1100011100111000000000 m
b11000111001110 o
b110001111001110 q
b1100011100111000000000 n
b11000111001110 p
b1100011111001110 r
b1100011101101010 v
b1100011111101010 w
b11000111 x
b11000111 y
#200000
0!
00
#205000
1!
10
0#
02
1c
b11000111 d
b11000111 +
1*
#210000
0!
00
#215000
1!
10
b110 -
b111 ,
0c
0*
#220000
0!
00
#225000
1!
10
1#
b0 $
b0 %
b0 &
b0 '
b10000000 (
b10000000 )
b0 /
12
0b
0a
0`
0_
0^
0]
0\
0Z
0Y
0X
0W
0V
0U
0T
0O
0L
0K
0I
0H
0F
0C
0@
0=
0<
09
06
05
b0 e
b0 f
b0 g
b0 h
b10000000 i
b10000000 j
b1100100000000000000000 t
b11001000000000 u
b1001010111001110 v
b0 k
b0 l
b0 m
b0 o
b0 q
b0 n
b0 p
b0 r
b0 s
b0 t
b0 u
b0 v
b10000000 w
b0 x
b0 y
#230000
0!
00
#235000
1!
10
0#
02
1c
b0 d
b0 +
1*
#240000
0!
00
#245000
1!
10
b111 -
b1000 ,
0c
0*
#250000
0!
00
#255000
1!
10
1#
b11111111 $
b11111111 %
b11111111 &
b11111111 '
b11111111 /
12
1R
1Q
1P
1O
1N
1M
1L
1K
1J
1I
1H
1G
1F
1E
1D
1C
1B
1A
1@
1?
1>
1=
1<
1;
1:
19
18
17
16
15
14
13
b1111111100000000 e
b1111111100000000 f
b1111111100000000 g
b1111111100000000 h
b1111111100000000 q
b1111111100000000 r
b1111111100000000 v
b1111111110000000 w
b11111111 x
b11111111 y
#260000
0!
00
#265000
1!
10
0#
02
1c
b11111111 d
b11111111 +
1*
#270000
0!
00
#275000
1!
10
b1000 -
b1001 ,
0c
0*
#280000
0!
00
#285000
1!
10
1#
b0 $
b0 '
b10000000 /
12
0R
0Q
0P
0O
0N
0M
0L
0K
0:
09
08
07
06
05
04
03
b0 e
b0 h
b1111111100000000 k
b10000000100000000 l
b11111111000000000000000 m
b111111110000000 o
b111111110000000 q
b11111111011111111000000000000000 n
b111111110000000 p
b111111110000000 r
b111111110000000 v
b1000000000000000 w
b10000000 x
b10000000 y
#290000
0!
00
#295000
1!
10
0#
02
1c
b10000000 d
b10000000 +
1*
#300000
0!
00
#305000
1!
10
b1001 -
b1010 ,
0c
0*
#310000
0!
00
#315000
1!
10
1#
b1100100 %
b1100100 &
b11001000 '
b1000000 (
b1000000 )
b100010 /
12
1\
0[
1T
0S
1O
1L
1K
0J
0I
0G
0F
0C
0B
0A
0?
0>
0;
b110010000000000 f
b110010000000000 g
b1100100000000000 h
b1000000 i
b1000000 j
b110010000000000 k
b110010000000000 l
b110010000000000000000 m
b1100100000000 o
b1100100000000 q
b110010000000000000000 n
b1100100000000 p
b111110100000000 r
b110010000000000 s
b110010000000000000000 t
b1100100000000 u
b11001000000000 v
b11001010000000 w
b110010 x
b110010 y
#320000
0!
00
#325000
1!
10
0#
02
1c
b110010 d
b110010 +
1*
#330000
0!
00
#335000
1!
10
b1 .
b1011 ,
0c
0*
#340000
0!
00
#345000
1!
10
1#
b11000000 (
b11000000 )
b110 /
12
1[
1S
b11000000 i
b11000000 j
b10010110000000000000000 t
b100101100000000 u
b110010000000000 v
b10010110000000000000000 m
b100101100000000 o
b100101100000000 q
b10010110000000000000000 n
b100101100000000 p
b1010111100000000 r
b1001011000000000 v
b1001011010000000 w
b10010110 x
b10010110 y
#350000
0!
00
#355000
1!
10
0#
02
1c
b10010110 d
b10010110 +
1*
#360000
0!
00
#365000
1!
10
b10 .
b1100 ,
0c
0*
#370000
0!
00
#375000
1!
10
1#
b1111000 $
b1111101 %
b1110110 &
b1111011 '
b1001101 (
b1100110 )
b1111001 /
12
1a
1`
1]
0[
1Z
1X
1W
0S
1R
1Q
1N
1M
0K
1I
1F
1B
1?
1>
17
16
15
14
b111100000000000 e
b111110100000000 f
b111011000000000 g
b111101100000000 h
b1001101 i
b1100110 j
b1001111101100000000000 t
b10011111011000 u
b111001011011000 v
b10100000000 k
b10100000000 l
b11000000100000000 m
b110000001 o
b111100110000001 q
b11000000100000000 n
b110000001 p
b111011110000001 r
b11111111000000000 s
b11111111001101001100110000000000 t
b11010011001100 u
b100010010110101 v
b100010100110101 w
b1000101 x
b1000101 y
#380000
0!
00
#385000
1!
10
0#
02
1c
b1000101 d
b1000101 +
1*
#390000
0!
00
#395000
1!
10
b11 .
b1101 ,
0c
0*
#400000
0!
00
#405000
1!
10
1#
b101101 $
b1000011 %
b1011001 &
b1101111 '
b10001100 (
b10110100 )
b1011000 /
12
0a
1^
0\
1[
0Z
0T
1S
1P
0N
1J
0I
0H
1G
0E
1A
0@
0?
0>
0=
1:
18
06
04
b10110100000000 e
b100001100000000 f
b101100100000000 g
b110111100000000 h
b10001100 i
b10110100 j
b11111110100110010110100000000000 t
b1001100101101000 u
b1110000000011001 v
b1011000000000 k
b1011000000000 l
b11000000100000000000 m
b110000001000 o
b11100100001000 q
b11000000100000000000 n
b110000001000 p
b110010100001000 r
b10110000000000 s
b111101111000000000000 t
b1111011110000 u
b101011111111000 v
b101100001111000 w
b1011000 x
b1011000 y
#410000
0!
00
#415000
1!
10
0#
02
1c
b1011000 d
b1011000 +
1*
#420000
0!
00
#425000
1!
10
b1010 -
0c
0*
#430000
0!
00
#435000
1!
10
1#
b1100100 $
b1101110 %
b1111000 &
b10000010 '
b10000000 (
b10000000 )
12
0`
0^
0]
0X
0W
0R
0P
0O
0M
0L
1K
0J
1E
0B
1@
1?
1=
0:
07
14
b110010000000000 e
b110111000000000 f
b111100000000000 g
b1000001000000000 h
b10000000 i
b10000000 j
b101100000000000000000 t
b1011000000000 u
b100111100001000 v
b101000000000 k
b101000000000 l
b1010000000000000000 m
b10100000000 o
b110100100000000 q
b1010000000000000000 n
b10100000000 p
b111110100000000 r
b1010000000000 s
b10100000000000000000 t
b101000000000 u
b111001100000000 v
b111001110000000 w
b1110011 x
b1110011 y
#440000
0!
00
#445000
1!
10
b110010 $
b111100 %
b1000110 &
b1010000 '
b1000000 (
b11000000 )
1\
1T
0S
0Q
1N
1L
0K
1I
1H
0G
0F
0E
0A
1>
0<
19
08
16
04
b11001000000000 e
b11110000000000 f
b100011000000000 g
b101000000000000 h
b1000000 i
b11000000 j
b11110000000000000000 t
b111100000000 u
b111100000000000 v
b101000000000000000 m
b1010000000 o
b11010010000000 q
b101000000000000000 n
b1010000000 p
b100100010000000 r
b100001110000000 v
b100010000000000 w
b1000100 x
b1000100 y
1c
b1110011 d
b1110011 +
1*
#450000
0!
00
#455000
1!
10
b11001000 $
b11010010 %
b11011100 &
b11100110 '
b11000000 (
b1000000 )
0#
02
0[
1S
1Q
1P
0N
1M
1K
0I
1G
1F
1C
1A
0@
0?
0=
1<
1;
09
17
06
05
14
13
b1100100000000000 e
b1101001000000000 f
b1101110000000000 g
b1110011000000000 h
b11000000 i
b1000000 j
b1010000000000000000 t
b10100000000 u
b11100110000000 v
b1111000000000000000 m
b11110000000 o
b1100111110000000 q
b1111000000000000000 n
b11110000000 p
b1110001110000000 r
b1101010010000000 v
b1101010100000000 w
b11010101 x
b11010101 y
b1000100 d
b1000100 +
#460000
0!
00
#465000
1!
10
0c
0*
